…
```r
mtcars <- mtcars %>%  rownames_to_column(var="type")

  
mtcars %>% group_by(type) %>% 
  summarize(mpg=mean(mpg))
```

```
## `summarise()` ungrouping output (override with `.groups` argument)
```

```
## # A tibble: 32 x 2
##    type                 mpg
##    <chr>              <dbl>
##  1 AMC Javelin         15.2
##  2 Cadillac Fleetwood  10.4
##  3 Camaro Z28          13.3
##  4 Chrysler Imperial   14.7
##  5 Datsun 710          22.8
##  6 Dodge Challenger    15.5
##  7 Duster 360          14.3
##  8 Ferrari Dino        19.7
##  9 Fiat 128            32.4
## 10 Fiat X1-9           27.3
## # ... with 22 more rows
```
